+375338975657 27.11.2003 23:54:31 01:34:29 Orsha 0.15
+375331234567 30.01.2001 12:38:11 00:12:54 Polock 0.15
+375339876543 02.12.2021 13:24:01 00:01:01 Orsha 0.15
+375335679812 10.03.2005 16:27:17 00:45:25 Minsk 0.5
+375332345671 15.05.2009 20:25:13 00:37:59 Talochino 0.15
+375339870456 01.11.2021 03:23:20 02:45:46 Vitebsk 0.5